{
  "name": "httpd",
  "description": "provisions a dubplate redirect httpd",
  "json_class": "Chef::Role",
  "default_attributes": {},
  "run_list": [
    "recipe[zsh]",
    "recipe[users]",
    "recipe[nodejs]",
    "recipe[dubplate]"
  ]
}
